{
  "mode": "production",
  "context": "/home/aaike/lab/inkind-interplay",
  "entry": {
    "@gik/ui": "/home/aaike/lab/inkind-interplay/inkind-nextjs/packages/@gik/ui/index.ts"
  },
  "output": {
    "filename": "[name].js",
    "path": "/home/aaike/lab/inkind-interplay/interplay/build/",
    "libraryTarget": "umd",
    "umdNamedDefine": true,
    "jsonpFunction": "webpackJsonp_srF5zONFmd",
    "publicPath": "https://cdn.interplay.io/ckl3w9adi000001s6bd87e6os/srF5zONFmd/master/1615749790518/interplay/build/",
    "chunkFilename": "[name].[chunkhash].js"
  },
  "resolve": {
    "extensions": [
      ".js",
      ".jsx",
      ".ts",
      ".tsx",
      ".json",
      ".vue",
      ".scss",
      ".css",
      ".svg",
      ".mdx"
    ],
    "alias": {
      "~": "/home/aaike/lab/inkind-interplay",
      "@gik/workspace": "/home/aaike/lab/inkind-interplay",
      "@gik/next-app": "/home/aaike/lab/inkind-interplay/inkind-nextjs",
      "@gik/core": "/home/aaike/lab/inkind-interplay/inkind-nextjs/packages/@gik/core",
      "@gik/eslint-config": "/home/aaike/lab/inkind-interplay/inkind-nextjs/packages/@gik/eslint-config",
      "@gik/stylelint-config": "/home/aaike/lab/inkind-interplay/inkind-nextjs/packages/@gik/stylelint-config",
      "@gik/ui": "/home/aaike/lab/inkind-interplay/inkind-nextjs/packages/@gik/ui",
      "@gik/storybook": "/home/aaike/lab/inkind-interplay/inkind-storybook",
      "@": "/home/aaike/lab/inkind-interplay/inkind-storybook/src"
    }
  },
  "resolveLoader": {
    "modules": [
      "/home/aaike/.nvm/versions/node/v14.15.4/lib/node_modules/@interplay/cli/node_modules",
      "/home/aaike/.nvm/versions/node/v14.15.4/lib/node_modules/node_modules",
      "node_modules",
      "/home/aaike/lab/inkind-interplay/node_modules"
    ]
  },
  "plugins": [
    {
      "dangerouslyAllowCleanPatternsOutsideProject": false,
      "dry": false,
      "verbose": false,
      "cleanStaleWebpackAssets": true,
      "protectWebpackAssets": true,
      "cleanAfterEveryBuildPatterns": [],
      "cleanOnceBeforeBuildPatterns": [
        "**/*"
      ],
      "currentAssets": [],
      "initialClean": false,
      "outputPath": ""
    },
    {
      "opts": {
        "publicPath": null,
        "basePath": "",
        "fileName": "/home/aaike/lab/inkind-interplay/interplay/config/manifest.json",
        "transformExtensions": {},
        "writeToFileEmit": false,
        "seed": null,
        "filter": null,
        "map": null,
        "generate": null,
        "sort": null
      }
    },
    {
      "options": {
        "path": "https://cdn.interplay.io/ckl3w9adi000001s6bd87e6os/srF5zONFmd/master/1615749790518/interplay/build/"
      },
      "exclusiveOptionLength": 1
    },
    {
      "options": {
        "cwd": "/home/aaike/lab/inkind-interplay",
        "files": [
          "/home/aaike/lab/inkind-interplay/inkind-storybook/src/stories/ui/Button/Button.stories.tsx",
          "/home/aaike/lab/inkind-interplay/inkind-storybook/src/styles.ts"
        ],
        "dirs": []
      }
    }
  ],
  "optimization": {
    "noEmitOnErrors": false,
    "minimize": true
  },
  "module": {
    "rules": [
      {
        "test": {},
        "exclude": {},
        "use": [
          {
            "loader": "babel-loader",
            "options": {
              "babelrc": false,
              "configFile": false,
              "compact": true,
              "sourceType": "unambiguous",
              "presets": [
                [
                  null,
                  {
                    "useESModules": false
                  }
                ]
              ],
              "plugins": [
                null,
                null,
                null,
                null,
                [
                  null,
                  {
                    "loose": false
                  }
                ],
                [
                  null,
                  {
                    "proposal": "minimal"
                  }
                ],
                [
                  null,
                  {
                    "loose": false
                  }
                ],
                null,
                [
                  null,
                  {
                    "legacy": true
                  }
                ],
                null,
                null,
                null,
                null,
                null,
                null,
                [
                  null,
                  {
                    "loose": true
                  }
                ],
                null,
                null
              ]
            }
          }
        ]
      },
      {
        "test": {},
        "use": [
          {
            "loader": "babel-loader",
            "options": {
              "babelrc": false,
              "configFile": false,
              "compact": true,
              "sourceType": "unambiguous",
              "presets": [
                [
                  null,
                  {
                    "useESModules": false
                  }
                ]
              ],
              "plugins": [
                null,
                null,
                null,
                null,
                [
                  null,
                  {
                    "loose": false
                  }
                ],
                [
                  null,
                  {
                    "proposal": "minimal"
                  }
                ],
                [
                  null,
                  {
                    "loose": false
                  }
                ],
                null,
                [
                  null,
                  {
                    "legacy": true
                  }
                ],
                null,
                null,
                null,
                null,
                null,
                null,
                [
                  null,
                  {
                    "loose": true
                  }
                ],
                null,
                null
              ]
            }
          },
          {
            "loader": "ts-loader",
            "options": {
              "logLevel": "info",
              "instance": "code",
              "compilerOptions": {
                "module": "ES6",
                "esModuleInterop": true,
                "resolveJsonModule": true,
                "moduleResolution": "node",
                "jsx": "react",
                "target": "es6",
                "skipLibCheck": true
              },
              "transpileOnly": true
            }
          }
        ]
      },
      {
        "test": {},
        "use": [
          {
            "loader": "style-loader"
          },
          {
            "loader": "css-loader",
            "options": {
              "importLoaders": 1
            }
          }
        ]
      },
      {
        "test": {},
        "resolve": {
          "extensions": [
            ".scss"
          ]
        },
        "use": [
          {
            "loader": "style-loader"
          },
          {
            "loader": "css-loader",
            "options": {
              "import": false,
              "importLoaders": 1,
              "localsConvention": "asIs",
              "modules": false,
              "url": false,
              "sourceMap": true
            }
          },
          {
            "loader": "postcss-loader"
          },
          {
            "loader": "sass-loader"
          }
        ],
        "include": [
          "/home/aaike/lab/inkind-interplay/inkind-storybook",
          "/home/aaike/lab/inkind-interplay/inkind-nextjs"
        ]
      },
      {
        "test": {},
        "resolve": {
          "extensions": [
            ".sass"
          ]
        },
        "use": [
          {
            "loader": "style-loader"
          },
          {
            "loader": "css-loader",
            "options": {
              "import": false,
              "importLoaders": 1,
              "localsConvention": "asIs",
              "modules": false,
              "url": false,
              "sourceMap": true
            }
          },
          {
            "loader": "postcss-loader"
          },
          {
            "loader": "sass-loader"
          }
        ],
        "include": [
          "/home/aaike/lab/inkind-interplay/inkind-storybook",
          "/home/aaike/lab/inkind-interplay/inkind-nextjs"
        ]
      },
      {
        "test": {},
        "use": [
          "style-loader",
          {
            "loader": "css-loader",
            "options": {
              "sourceMap": false
            }
          },
          {
            "loader": "postcss-loader",
            "options": {
              "sourceMap": false
            }
          },
          {
            "loader": "stylus-loader",
            "options": {
              "sourceMap": false
            }
          }
        ]
      },
      {
        "test": {},
        "use": [
          "style-loader",
          {
            "loader": "css-loader",
            "options": {
              "sourceMap": false,
              "importLoaders": 1,
              "modules": true
            }
          },
          {
            "loader": "less-loader",
            "options": {}
          }
        ]
      },
      {
        "test": {},
        "use": {
          "loader": "url-loader",
          "options": {
            "limit": 20000,
            "name": "[name].[ext]",
            "outputPath": "assets/"
          }
        }
      },
      {
        "test": {},
        "use": [
          {
            "loader": "url-loader",
            "options": {
              "limit": 20000,
              "mimetype": "application/font-woff",
              "outputPath": "assets/"
            }
          }
        ]
      },
      {
        "test": {},
        "use": [
          {
            "loader": "url-loader",
            "options": {
              "limit": 20000,
              "mimetype": "application/font-woff2",
              "outputPath": "assets/"
            }
          }
        ]
      },
      {
        "test": {},
        "use": [
          {
            "loader": "url-loader",
            "options": {
              "limit": 20000,
              "mimetype": "application/font-sfnt",
              "outputPath": "assets/"
            }
          }
        ]
      }
    ]
  },
  "node": {
    "fs": "empty",
    "module": "empty"
  },
  "externals": {
    "react": {
      "root": "React",
      "commonjs2": "react",
      "commonjs": "react",
      "amd": "react",
      "umd": "react"
    },
    "react-dom": {
      "root": "ReactDOM",
      "commonjs2": "react-dom",
      "commonjs": "react-dom",
      "amd": "react-dom",
      "umd": "react-dom"
    }
  }
}