{
   "components": {
      "GikUi_Button": {
         "id": "GikUi_Button",
         "name": "Button",
         "props": {
            "type": {
               "name": "type",
               "type": "string",
               "default": "a",
               "description": "The type of button determines what tag should be used to render the button to the DOM. available options: a, input, button, reset, submit"
            },
            "externalLink": {
               "name": "externalLink",
               "type": "boolean",
               "default": false,
               "description": "If type is a then this controls whether to use an external link or not. Defaults to false."
            },
            "scrollLink": {
               "name": "scrollLink",
               "type": "boolean",
               "default": false,
               "description": "If type is a then this controls whether to scroll to the component id"
            },
            "tooltip": {
               "name": "tooltip",
               "type": "string",
               "description": "Adds a floating tooltip to the button"
            },
            "variant": {
               "name": "variant",
               "type": "string",
               "default": "primary",
               "description": "Button variant to use"
            },
            "size": {
               "name": "size",
               "type": "string",
               "default": "base",
               "description": "Size the button on a fixed scale"
            },
            "append": {
               "name": "append",
               "type": "array",
               "items": {
                  "type": "Node"
               },
               "description": "Content to be added behind the main (children) content"
            },
            "prepend": {
               "name": "prepend",
               "type": "array",
               "items": {
                  "type": "Node"
               },
               "description": "Content to be added before the main (children) content",
               "ui": {
                  "suggested": [
                     "GikUi_SvgIcon"
                  ]
               }
            },
            "tabIndex": {
               "name": "tabIndex",
               "type": "number",
               "default": 0,
               "description": "@ignore",
               "ui": {
                  "hidden": true
               }
            },
            "block": {
               "name": "block",
               "type": "boolean",
               "description": "display button as a block (full-width)"
            },
            "fullWidth": {
               "name": "fullWidth",
               "type": "boolean",
               "description": "display button as full-width"
            },
            "hover": {
               "name": "hover",
               "type": "boolean",
               "description": "force display of hover state"
            },
            "active": {
               "name": "active",
               "type": "boolean",
               "description": "force display of active state"
            },
            "focus": {
               "name": "focus",
               "type": "boolean",
               "description": "force display of focus state"
            },
            "disabled": {
               "name": "disabled",
               "type": "boolean",
               "description": "put button in disabled mode"
            },
            "loading": {
               "name": "loading",
               "type": "boolean",
               "description": "put button in loading mode"
            },
            "uppercase": {
               "name": "uppercase",
               "type": "boolean",
               "default": true,
               "description": "use rounded corners (default)"
            },
            "rounded": {
               "name": "rounded",
               "type": "boolean",
               "description": "use rounded corners (default)"
            },
            "pill": {
               "name": "pill",
               "type": "boolean",
               "description": "use pill shaped corners"
            },
            "squared": {
               "name": "squared",
               "type": "boolean",
               "description": "use squared corners"
            },
            "wide": {
               "name": "wide",
               "type": "boolean",
               "description": "Adds extra padding in x axis"
            },
            "href": {
               "name": "href",
               "type": "string",
               "description": "Href attribute to add to anchor tags"
            },
            "target": {
               "name": "target",
               "type": "string",
               "description": "Href target"
            },
            "rel": {
               "name": "rel",
               "type": "string",
               "description": "rel attribute"
            },
            "circle": {
               "name": "circle",
               "type": "boolean",
               "description": "use circular shape (this will apply border-radius: 50% with a fixed width and height)"
            },
            "form": {
               "name": "form",
               "type": "string",
               "description": "Attach this to a form that isnt a parent of this element."
            },
            "preventClickWhenDisabled": {
               "name": "preventClickWhenDisabled",
               "type": "boolean"
            },
            "children": {
               "name": "children",
               "type": "array",
               "items": {
                  "type": "Node"
               }
            }
         },
         "code": {
            "packageName": "@gik/ui",
            "exportName": "Button",
            "lib": "gikUi"
         },
         "relativePath": "inkind-nextjs/packages/@gik/ui/Button/Button.tsx"
      },
      "GikUi_SvgIcon": {
         "id": "GikUi_SvgIcon",
         "name": "SvgIcon",
         "props": {
            "name": {
               "name": "name",
               "type": "string",
               "parent": "HeroSvgIconProps"
            },
            "size": {
               "name": "size",
               "type": "string",
               "enum": [
                  "xs",
                  "sm",
                  "base",
                  "lg",
                  "xl",
                  "2xl",
                  "3xl"
               ],
               "default": "base",
               "parent": "BaseSvgIconProps"
            },
            "set": {
               "name": "set",
               "type": "string",
               "enum": [
                  "hero-icons",
                  "gik-icons"
               ],
               "default": null,
               "parent": "BaseSvgIconProps"
            }
         },
         "code": {
            "packageName": "@gik/ui",
            "exportName": "SvgIcon",
            "lib": "gikUi"
         },
         "relativePath": "inkind-nextjs/packages/@gik/ui/SvgIcon/SvgIcon.tsx",
         "required": [
            "name"
         ]
      }
   },
   "externalComponents": {},
   "samples": {
      "UI__Button__Emoji__1": {
         "id": "UI__Button__Emoji__1",
         "name": "Emoji",
         "componentId": "GikUi_Button",
         "hash": "9c22f6211c515ca9e67e22118b72fdaf",
         "relativePath": "inkind-storybook/src/stories/ui/Button/Button.stories.tsx",
         "nodeId": "n_UI__Button__Emoji__1_0"
      },
      "UI__Button__Primary__1": {
         "id": "UI__Button__Primary__1",
         "name": "Primary",
         "componentId": "GikUi_Button",
         "hash": "5d415884dad1d33bbabf4e3352acdcbb",
         "relativePath": "inkind-storybook/src/stories/ui/Button/Button.stories.tsx",
         "nodeId": "n_UI__Button__Primary__1_0"
      },
      "UI__Button__Secondary__1": {
         "id": "UI__Button__Secondary__1",
         "name": "Secondary",
         "componentId": "GikUi_Button",
         "hash": "c1c42dfbd3822e8dc4112710ba717a11",
         "relativePath": "inkind-storybook/src/stories/ui/Button/Button.stories.tsx",
         "nodeId": "n_UI__Button__Secondary__1_0"
      },
      "UI__Button__SVGIcon__1": {
         "id": "UI__Button__SVGIcon__1",
         "name": "Svg Icon",
         "componentId": "GikUi_Button",
         "hash": "f6e913962a8986ff7c48e98ad738d578",
         "relativePath": "inkind-storybook/src/stories/ui/Button/Button.stories.tsx",
         "nodeId": "n_UI__Button__SVGIcon__1_0"
      },
      "s_aa654a443a82ab42fb9f1c866fa202ee": {
         "id": "s_aa654a443a82ab42fb9f1c866fa202ee",
         "name": "SvgIcon",
         "componentId": "GikUi_SvgIcon",
         "hash": "aa654a443a82ab42fb9f1c866fa202ee",
         "relativePath": "inkind-storybook/src/stories/ui/Button/Button.stories.tsx",
         "nodeId": "n_s_aa654a443a82ab42fb9f1c866fa202ee_0"
      }
   },
   "nodes": {
      "n_UI__Button__Emoji__1_0": {
         "id": "n_UI__Button__Emoji__1_0",
         "name": "Button",
         "componentId": "GikUi_Button",
         "props": {
            "children": [
               {
                  "__type": "node",
                  "nodeId": "n_UI__Button__Emoji__1_1"
               }
            ]
         }
      },
      "n_UI__Button__Emoji__1_1": {
         "id": "n_UI__Button__Emoji__1_1",
         "name": "span",
         "componentId": "span",
         "props": {
            "role": "img",
            "aria-label": "so cool",
            "children": [
               "😀 😎 👍 💯"
            ]
         }
      },
      "n_UI__Button__Primary__1_0": {
         "id": "n_UI__Button__Primary__1_0",
         "name": "Button",
         "componentId": "GikUi_Button",
         "props": {
            "children": [
               "Primary"
            ]
         }
      },
      "n_UI__Button__Secondary__1_0": {
         "id": "n_UI__Button__Secondary__1_0",
         "name": "Button",
         "componentId": "GikUi_Button",
         "props": {
            "variant": "secondary",
            "children": [
               "Secondary"
            ]
         }
      },
      "n_UI__Button__SVGIcon__1_0": {
         "id": "n_UI__Button__SVGIcon__1_0",
         "name": "Button",
         "componentId": "GikUi_Button",
         "props": {
            "prepend": [
               {
                  "__type": "node",
                  "nodeId": "n_UI__Button__SVGIcon__1_1"
               }
            ],
            "children": [
               "Test with icon"
            ]
         }
      },
      "n_UI__Button__SVGIcon__1_1": {
         "id": "n_UI__Button__SVGIcon__1_1",
         "name": "SvgIcon",
         "componentId": "GikUi_SvgIcon",
         "props": {
            "name": "ChevronRight"
         }
      },
      "n_s_aa654a443a82ab42fb9f1c866fa202ee_0": {
         "id": "n_s_aa654a443a82ab42fb9f1c866fa202ee_0",
         "name": "SvgIcon",
         "componentId": "GikUi_SvgIcon",
         "props": {
            "name": "ChevronRight"
         }
      }
   }
}