{
   "inkind-storybook/src/stories/ui/Button/Button.stories.tsx": {
      "Imported": {
         "UI__Button__Emoji__1": {
            "name": "Emoji",
            "componentId": "GikUi_Button",
            "example": {
               "componentName": "Button",
               "props": {
                  "children": [
                     {
                        "componentName": "span",
                        "props": {
                           "role": "img",
                           "aria-label": "so cool",
                           "children": [
                              "😀 😎 👍 💯"
                           ]
                        },
                        "componentId": "span"
                     }
                  ]
               },
               "componentId": "GikUi_Button"
            },
            "relativePath": "inkind-storybook/src/stories/ui/Button/Button.stories.tsx",
            "origin": "base",
            "id": "UI__Button__Emoji__1",
            "logs": [],
            "hash": "9c22f6211c515ca9e67e22118b72fdaf",
            "status": "Imported"
         },
         "UI__Button__Primary__1": {
            "name": "Primary",
            "componentId": "GikUi_Button",
            "example": {
               "componentName": "Button",
               "props": {
                  "children": [
                     "Primary"
                  ]
               },
               "componentId": "GikUi_Button"
            },
            "relativePath": "inkind-storybook/src/stories/ui/Button/Button.stories.tsx",
            "origin": "base",
            "id": "UI__Button__Primary__1",
            "logs": [],
            "hash": "5d415884dad1d33bbabf4e3352acdcbb",
            "status": "Imported"
         },
         "UI__Button__Secondary__1": {
            "name": "Secondary",
            "componentId": "GikUi_Button",
            "example": {
               "componentName": "Button",
               "props": {
                  "variant": "secondary",
                  "children": [
                     "Secondary"
                  ]
               },
               "componentId": "GikUi_Button"
            },
            "relativePath": "inkind-storybook/src/stories/ui/Button/Button.stories.tsx",
            "origin": "base",
            "id": "UI__Button__Secondary__1",
            "logs": [],
            "hash": "c1c42dfbd3822e8dc4112710ba717a11",
            "status": "Imported"
         },
         "s_aa654a443a82ab42fb9f1c866fa202ee": {
            "name": "SvgIcon",
            "componentId": "GikUi_SvgIcon",
            "example": {
               "componentName": "SvgIcon",
               "props": {
                  "name": "ChevronRight"
               },
               "componentId": "GikUi_SvgIcon"
            },
            "relativePath": "inkind-storybook/src/stories/ui/Button/Button.stories.tsx",
            "origin": "node",
            "logs": [],
            "hash": "aa654a443a82ab42fb9f1c866fa202ee",
            "id": "s_aa654a443a82ab42fb9f1c866fa202ee",
            "status": "Imported"
         },
         "UI__Button__SVGIcon__1": {
            "name": "Svg Icon",
            "componentId": "GikUi_Button",
            "example": {
               "componentName": "Button",
               "props": {
                  "prepend": [
                     {
                        "componentName": "SvgIcon",
                        "props": {
                           "name": "ChevronRight"
                        },
                        "componentId": "GikUi_SvgIcon"
                     }
                  ],
                  "children": [
                     "Test with icon"
                  ]
               },
               "componentId": "GikUi_Button"
            },
            "relativePath": "inkind-storybook/src/stories/ui/Button/Button.stories.tsx",
            "origin": "base",
            "id": "UI__Button__SVGIcon__1",
            "logs": [
               "Example prop 'prepend' updated to array value to match component config."
            ],
            "hash": "f6e913962a8986ff7c48e98ad738d578",
            "status": "Imported"
         }
      }
   }
}