{
  "teamId": "ckl3w9adi000001s6bd87e6os",
  "projectId": "srF5zONFmd",
  "framework": "react",
  "examplePaths": [
    "inkind-storybook/src/styles.ts",
    "inkind-storybook/src/stories/ui/Button/Button.stories.tsx"
  ],
  "includePaths": [],
  "deployPaths": [],
  "packages": [
    {
      "name": "@gik/ui",
      "relativePath": "inkind-nextjs/packages/@gik/ui/package.json",
      "src": {
        "entry": "inkind-nextjs/packages/@gik/ui/index.ts"
      }
    }
  ],
  "alias": {
    "@": "./inkind-storybook/src"
  }
}
